<svg xmlns="http://www.w3.org/2000/svg" width="97.178" height="99.742" viewBox="0 0 97.178 99.742">
  <g id="icon-bulb" transform="translate(-6.583 0)">
    <g id="Group_27" data-name="Group 27">
      <path id="Path_73" data-name="Path 73" d="M80.985,345l-14.343,7.367a6.83,6.83,0,0,0-4.86-2.028H51.9a3.249,3.249,0,0,1-.649-.039c-.09-.061-.313-.271-.494-.441l-.094-.089c-8.045-7.576-14.843-7.1-22.574-4.044a5.108,5.108,0,0,1-2.432.533l-2.177,0a4.96,4.96,0,0,0-4.67-3.311H11.534A4.96,4.96,0,0,0,6.583,347.9v19.072a4.957,4.957,0,0,0,4.951,4.952h7.272a4.959,4.959,0,0,0,4.67-3.307h4a5.663,5.663,0,0,1,1.325.276l18.805,5.028c.823.223,1.58.443,2.311.656a23.816,23.816,0,0,0,6.6,1.3c2.4,0,4.921-.757,8.23-2.965l.049-.034L87.981,356.37a6.678,6.678,0,0,0-7-11.374ZM19.862,366.977a1.07,1.07,0,0,1-1.055,1.056H11.534a1.07,1.07,0,0,1-1.055-1.056V347.9a1.073,1.073,0,0,1,1.055-1.061h7.272a1.073,1.073,0,0,1,1.055,1.061ZM85.719,353.2,62.559,369.691c-4.714,3.138-6.721,2.554-11.556,1.149-.748-.217-1.521-.442-2.385-.676l-18.81-5.03a9.334,9.334,0,0,0-2.333-.409H23.758V350.156l2.073-.009a8.667,8.667,0,0,0,3.685-.8c6.7-2.645,11.872-2.96,18.475,3.258l.093.088a4.546,4.546,0,0,0,3.814,1.539h9.884a2.953,2.953,0,1,1,0,5.905H45.758a1.948,1.948,0,1,0,0,3.9H61.781a6.848,6.848,0,0,0,6.708-8.239l14.277-7.334a2.795,2.795,0,1,1,2.952,4.738Z" transform="translate(0 -276.137)" fill="#384d68"/>
      <path id="Path_74" data-name="Path 74" d="M193.922,46.076a6.321,6.321,0,0,0,.675,11.658v2.9a6.447,6.447,0,0,0,6.437,6.443h8.63a6.45,6.45,0,0,0,6.443-6.443v-2.9a6.321,6.321,0,0,0,.675-11.658c.853-3.169,2.582-5.529,4.4-8,2.8-3.808,5.969-8.123,5.962-15.725,0-.679-.028-1.375-.083-2.07a1.948,1.948,0,1,0-3.884.309c.047.593.071,1.185.071,1.763.006,6.324-2.526,9.769-5.206,13.416-2.033,2.767-4.126,5.62-5.123,9.675H197.784c-1-4.054-3.091-6.907-5.124-9.674-2.681-3.647-5.213-7.092-5.2-13.417a18.229,18.229,0,0,1,5.32-13.387A17.648,17.648,0,0,1,205.324,3.9h.056a17.643,17.643,0,0,1,10.679,3.467,1.948,1.948,0,1,0,2.316-3.133,22.1,22.1,0,0,0-28.334,1.955,22.14,22.14,0,0,0-6.482,16.158c-.01,7.6,3.162,11.921,5.961,15.729,1.819,2.475,3.548,4.834,4.4,8Zm18.289,14.559a2.55,2.55,0,0,1-2.547,2.547h-8.63a2.547,2.547,0,0,1-2.541-2.547V58.089h13.718Zm-15.528-11.3h17.338a2.428,2.428,0,1,1,0,4.856H196.683a2.428,2.428,0,1,1,0-4.856Z" transform="translate(-142.499 0)" fill="#384d68"/>
      <path id="Path_75" data-name="Path 75" d="M289.322,65a1.948,1.948,0,0,0-3.9,0V77.078a1.948,1.948,0,1,0,3.9,0Z" transform="translate(-224.522 -50.765)" fill="#384d68"/>
      <path id="Path_76" data-name="Path 76" d="M287.374,170.3a1.948,1.948,0,0,0-1.948,1.948v.011a1.948,1.948,0,1,0,1.948-1.959Z" transform="translate(-224.522 -137.126)" fill="#384d68"/>
      <path id="Path_77" data-name="Path 77" d="M454.664,114.634h-7.912a1.948,1.948,0,1,0,0,3.9h7.912a1.948,1.948,0,0,0,0-3.9Z" transform="translate(-352.85 -92.302)" fill="#384d68"/>
      <path id="Path_78" data-name="Path 78" d="M429.943,15.908a1.939,1.939,0,0,0,1.084-.331l6.565-4.406a1.948,1.948,0,1,0-2.171-3.235l-6.565,4.406a1.948,1.948,0,0,0,1.088,3.566Z" transform="translate(-339.315 -6.123)" fill="#384d68"/>
      <path id="Path_79" data-name="Path 79" d="M437.593,203.78l-6.565-4.406a1.948,1.948,0,0,0-2.171,3.235l6.565,4.406a1.948,1.948,0,1,0,2.171-3.235Z" transform="translate(-339.316 -160.267)" fill="#384d68"/>
      <path id="Path_80" data-name="Path 80" d="M87.382,118.53h7.907a1.948,1.948,0,1,0,0-3.9H87.382a1.948,1.948,0,0,0,0,3.9Z" transform="translate(-63.49 -92.302)" fill="#384d68"/>
      <path id="Path_81" data-name="Path 81" d="M110.019,11.172l6.565,4.406a1.948,1.948,0,0,0,2.171-3.235l-6.565-4.406a1.948,1.948,0,0,0-2.171,3.235Z" transform="translate(-82.591 -6.124)" fill="#384d68"/>
    </g>
    <path id="Path_82" data-name="Path 82" d="M116.586,199.374l-6.565,4.406a1.948,1.948,0,1,0,2.171,3.235l6.565-4.406a1.948,1.948,0,1,0-2.171-3.235Z" transform="translate(-82.592 -160.267)" fill="#384d68"/>
    <path id="Path_83" data-name="Path 83" d="M375.058,55.466a1.919,1.919,0,1,0-.006-.005Z" transform="translate(-296.229 -41.978)" fill="#384d68"/>
  </g>
</svg>
